\relax 
\providecommand*{\memsetcounter}[2]{}
\catcode`"\active
\select@language{brazilian}
\@writefile{toc}{\select@language{brazilian}}
\@writefile{lof}{\select@language{brazilian}}
\@writefile{lot}{\select@language{brazilian}}
\@writefile{toc}{\contentsline {part}{{\def \penalty -\@M {}Teste Pós Terça}}{7}}
\@input{INPUTS.aux}
\ttl@finishall
\@input{PUBLICIDADE.aux}
\memsetcounter{lastsheet}{16}
\memsetcounter{lastpage}{16}
